(kicad_symbol_lib
	(version 20231120)
	(generator "kicad_symbol_editor")
	(generator_version "8.0")
	(symbol "BUK9Kx"
		(pin_names
			(offset 1.016)
		)
		(exclude_from_sim no)
		(in_bom yes)
		(on_board yes)
		(property "Reference" "T"
			(at 3.81 1.27 0)
			(effects
				(font
					(size 1.27 1.27)
				)
			)
		)
		(property "Value" "BUK9Kx"
			(at 6.35 -1.27 0)
			(effects
				(font
					(size 1.27 1.27)
				)
			)
		)
		(property "Footprint" "PCM_SilentWorks:SOT1205"
			(at -9.398 -2.794 0)
			(effects
				(font
					(size 1.27 1.27)
				)
				(hide yes)
			)
		)
		(property "Datasheet" ""
			(at -2.54 0 0)
			(effects
				(font
					(size 1.27 1.27)
				)
				(hide yes)
			)
		)
		(property "Description" ""
			(at 0 0 0)
			(effects
				(font
					(size 1.27 1.27)
				)
				(hide yes)
			)
		)
		(symbol "BUK9Kx_1_1"
			(circle
				(center -0.889 0)
				(radius 2.8194)
				(stroke
					(width 0.254)
					(type default)
				)
				(fill
					(type none)
				)
			)
			(circle
				(center 0 -1.778)
				(radius 0.2794)
				(stroke
					(width 0)
					(type default)
				)
				(fill
					(type outline)
				)
			)
			(polyline
				(pts
					(xy -1.778 -1.778) (xy 0 -1.778)
				)
				(stroke
					(width 0)
					(type default)
				)
				(fill
					(type none)
				)
			)
			(polyline
				(pts
					(xy -1.778 -1.27) (xy -1.778 -2.286)
				)
				(stroke
					(width 0.254)
					(type default)
				)
				(fill
					(type none)
				)
			)
			(polyline
				(pts
					(xy -1.778 0) (xy 0 0)
				)
				(stroke
					(width 0)
					(type default)
				)
				(fill
					(type none)
				)
			)
			(polyline
				(pts
					(xy -1.778 0.508) (xy -1.778 -0.508)
				)
				(stroke
					(width 0.254)
					(type default)
				)
				(fill
					(type none)
				)
			)
			(polyline
				(pts
					(xy -1.778 1.778) (xy 0 1.778)
				)
				(stroke
					(width 0)
					(type default)
				)
				(fill
					(type none)
				)
			)
			(polyline
				(pts
					(xy -1.778 2.286) (xy -1.778 1.27)
				)
				(stroke
					(width 0.254)
					(type default)
				)
				(fill
					(type none)
				)
			)
			(polyline
				(pts
					(xy 0 -1.778) (xy 0 -2.54)
				)
				(stroke
					(width 0)
					(type default)
				)
				(fill
					(type none)
				)
			)
			(polyline
				(pts
					(xy 0 -1.778) (xy 0 0)
				)
				(stroke
					(width 0)
					(type default)
				)
				(fill
					(type none)
				)
			)
			(polyline
				(pts
					(xy 0 2.54) (xy 0 1.778)
				)
				(stroke
					(width 0)
					(type default)
				)
				(fill
					(type none)
				)
			)
			(polyline
				(pts
					(xy -2.286 1.905) (xy -2.286 -1.905) (xy -2.286 -1.905)
				)
				(stroke
					(width 0.254)
					(type default)
				)
				(fill
					(type none)
				)
			)
			(polyline
				(pts
					(xy -1.524 0) (xy -0.508 0.381) (xy -0.508 -0.381) (xy -1.524 0)
				)
				(stroke
					(width 0)
					(type default)
				)
				(fill
					(type outline)
				)
			)
			(polyline
				(pts
					(xy 0 -1.778) (xy 0.762 -1.778) (xy 0.762 1.778) (xy 0 1.778)
				)
				(stroke
					(width 0)
					(type default)
				)
				(fill
					(type none)
				)
			)
			(polyline
				(pts
					(xy 0.254 0.508) (xy 0.381 0.381) (xy 1.143 0.381) (xy 1.27 0.254)
				)
				(stroke
					(width 0)
					(type default)
				)
				(fill
					(type none)
				)
			)
			(polyline
				(pts
					(xy 0.762 0.381) (xy 0.381 -0.254) (xy 1.143 -0.254) (xy 0.762 0.381)
				)
				(stroke
					(width 0)
					(type default)
				)
				(fill
					(type none)
				)
			)
			(circle
				(center 0 1.778)
				(radius 0.2794)
				(stroke
					(width 0)
					(type default)
				)
				(fill
					(type outline)
				)
			)
			(pin passive line
				(at 0 -5.08 90)
				(length 2.54)
				(name "~"
					(effects
						(font
							(size 1.27 1.27)
						)
					)
				)
				(number "1"
					(effects
						(font
							(size 1.27 1.27)
						)
					)
				)
			)
			(pin input line
				(at -7.62 0 0)
				(length 5.334)
				(name "~"
					(effects
						(font
							(size 1.27 1.27)
						)
					)
				)
				(number "2"
					(effects
						(font
							(size 1.27 1.27)
						)
					)
				)
			)
			(pin passive line
				(at 0 5.08 270)
				(length 2.54)
				(name "~"
					(effects
						(font
							(size 1.27 1.27)
						)
					)
				)
				(number "6"
					(effects
						(font
							(size 1.27 1.27)
						)
					)
				)
			)
		)
		(symbol "BUK9Kx_2_1"
			(circle
				(center -0.889 0)
				(radius 2.8194)
				(stroke
					(width 0.254)
					(type default)
				)
				(fill
					(type none)
				)
			)
			(circle
				(center 0 -1.778)
				(radius 0.2794)
				(stroke
					(width 0)
					(type default)
				)
				(fill
					(type outline)
				)
			)
			(polyline
				(pts
					(xy -1.778 -1.778) (xy 0 -1.778)
				)
				(stroke
					(width 0)
					(type default)
				)
				(fill
					(type none)
				)
			)
			(polyline
				(pts
					(xy -1.778 -1.27) (xy -1.778 -2.286)
				)
				(stroke
					(width 0.254)
					(type default)
				)
				(fill
					(type none)
				)
			)
			(polyline
				(pts
					(xy -1.778 0) (xy 0 0)
				)
				(stroke
					(width 0)
					(type default)
				)
				(fill
					(type none)
				)
			)
			(polyline
				(pts
					(xy -1.778 0.508) (xy -1.778 -0.508)
				)
				(stroke
					(width 0.254)
					(type default)
				)
				(fill
					(type none)
				)
			)
			(polyline
				(pts
					(xy -1.778 1.778) (xy 0 1.778)
				)
				(stroke
					(width 0)
					(type default)
				)
				(fill
					(type none)
				)
			)
			(polyline
				(pts
					(xy -1.778 2.286) (xy -1.778 1.27)
				)
				(stroke
					(width 0.254)
					(type default)
				)
				(fill
					(type none)
				)
			)
			(polyline
				(pts
					(xy 0 -1.778) (xy 0 -2.54)
				)
				(stroke
					(width 0)
					(type default)
				)
				(fill
					(type none)
				)
			)
			(polyline
				(pts
					(xy 0 -1.778) (xy 0 0)
				)
				(stroke
					(width 0)
					(type default)
				)
				(fill
					(type none)
				)
			)
			(polyline
				(pts
					(xy 0 2.54) (xy 0 1.778)
				)
				(stroke
					(width 0)
					(type default)
				)
				(fill
					(type none)
				)
			)
			(polyline
				(pts
					(xy -2.286 1.905) (xy -2.286 -1.905) (xy -2.286 -1.905)
				)
				(stroke
					(width 0.254)
					(type default)
				)
				(fill
					(type none)
				)
			)
			(polyline
				(pts
					(xy -1.524 0) (xy -0.508 0.381) (xy -0.508 -0.381) (xy -1.524 0)
				)
				(stroke
					(width 0)
					(type default)
				)
				(fill
					(type outline)
				)
			)
			(polyline
				(pts
					(xy 0 -1.778) (xy 0.762 -1.778) (xy 0.762 1.778) (xy 0 1.778)
				)
				(stroke
					(width 0)
					(type default)
				)
				(fill
					(type none)
				)
			)
			(polyline
				(pts
					(xy 0.254 0.508) (xy 0.381 0.381) (xy 1.143 0.381) (xy 1.27 0.254)
				)
				(stroke
					(width 0)
					(type default)
				)
				(fill
					(type none)
				)
			)
			(polyline
				(pts
					(xy 0.762 0.381) (xy 0.381 -0.254) (xy 1.143 -0.254) (xy 0.762 0.381)
				)
				(stroke
					(width 0)
					(type default)
				)
				(fill
					(type none)
				)
			)
			(circle
				(center 0 1.778)
				(radius 0.2794)
				(stroke
					(width 0)
					(type default)
				)
				(fill
					(type outline)
				)
			)
			(pin passive line
				(at 0 -5.08 90)
				(length 2.54)
				(name "~"
					(effects
						(font
							(size 1.27 1.27)
						)
					)
				)
				(number "3"
					(effects
						(font
							(size 1.27 1.27)
						)
					)
				)
			)
			(pin input line
				(at -7.62 0 0)
				(length 5.334)
				(name "~"
					(effects
						(font
							(size 1.27 1.27)
						)
					)
				)
				(number "4"
					(effects
						(font
							(size 1.27 1.27)
						)
					)
				)
			)
			(pin passive line
				(at 0 5.08 270)
				(length 2.54)
				(name "~"
					(effects
						(font
							(size 1.27 1.27)
						)
					)
				)
				(number "5"
					(effects
						(font
							(size 1.27 1.27)
						)
					)
				)
			)
		)
	)
	(symbol "ICT-Point"
		(pin_names
			(offset 1.016)
		)
		(exclude_from_sim no)
		(in_bom yes)
		(on_board yes)
		(property "Reference" "P"
			(at 0 1.651 0)
			(effects
				(font
					(size 0.7874 0.7874)
				)
			)
		)
		(property "Value" "ICT-Point"
			(at 0 -1.143 0)
			(effects
				(font
					(size 1.27 1.27)
				)
				(hide yes)
			)
		)
		(property "Footprint" ""
			(at 0 0 0)
			(effects
				(font
					(size 1.27 1.27)
				)
				(hide yes)
			)
		)
		(property "Datasheet" ""
			(at 0 0 0)
			(effects
				(font
					(size 1.27 1.27)
				)
				(hide yes)
			)
		)
		(property "Description" ""
			(at 0 0 0)
			(effects
				(font
					(size 1.27 1.27)
				)
				(hide yes)
			)
		)
		(symbol "ICT-Point_0_1"
			(polyline
				(pts
					(xy 0 0.381) (xy -0.635 1.143) (xy 0.635 1.143) (xy 0 0.381)
				)
				(stroke
					(width 0)
					(type default)
				)
				(fill
					(type background)
				)
			)
		)
		(symbol "ICT-Point_1_1"
			(pin passive line
				(at 0 0 90)
				(length 0.381)
				(name "~"
					(effects
						(font
							(size 0 0)
						)
					)
				)
				(number "1"
					(effects
						(font
							(size 0 0)
						)
					)
				)
			)
		)
	)
	(symbol "PT2258"
		(pin_names
			(offset 1.016)
		)
		(exclude_from_sim no)
		(in_bom yes)
		(on_board yes)
		(property "Reference" "U"
			(at 0 17.78 0)
			(effects
				(font
					(size 1.27 1.27)
				)
			)
		)
		(property "Value" "PT2258"
			(at 0 -40.64 0)
			(effects
				(font
					(size 1.27 1.27)
				)
			)
		)
		(property "Footprint" "Package_SO:SOIC-20W_7.5x12.8mm_P1.27mm"
			(at 0 20.32 0)
			(effects
				(font
					(size 1.27 1.27)
				)
				(hide yes)
			)
		)
		(property "Datasheet" "https://www.electrokit.com/uploads/productfile/41011/PT2258.pdf"
			(at 0 6.35 0)
			(effects
				(font
					(size 1.27 1.27)
				)
				(hide yes)
			)
		)
		(property "Description" ""
			(at 0 0 0)
			(effects
				(font
					(size 1.27 1.27)
				)
				(hide yes)
			)
		)
		(symbol "PT2258_0_1"
			(rectangle
				(start -7.62 16.51)
				(end 7.62 -39.37)
				(stroke
					(width 0)
					(type default)
				)
				(fill
					(type background)
				)
			)
		)
		(symbol "PT2258_1_1"
			(pin input line
				(at -10.16 13.97 0)
				(length 2.54)
				(name "IN1"
					(effects
						(font
							(size 1.27 1.27)
						)
					)
				)
				(number "1"
					(effects
						(font
							(size 1.27 1.27)
						)
					)
				)
			)
			(pin input line
				(at -10.16 -17.78 0)
				(length 2.54)
				(name "IN6"
					(effects
						(font
							(size 1.27 1.27)
						)
					)
				)
				(number "10"
					(effects
						(font
							(size 1.27 1.27)
						)
					)
				)
			)
			(pin output line
				(at 10.16 -17.78 180)
				(length 2.54)
				(name "OUT6"
					(effects
						(font
							(size 1.27 1.27)
						)
					)
				)
				(number "11"
					(effects
						(font
							(size 1.27 1.27)
						)
					)
				)
			)
			(pin output line
				(at 10.16 -11.43 180)
				(length 2.54)
				(name "OUT5"
					(effects
						(font
							(size 1.27 1.27)
						)
					)
				)
				(number "12"
					(effects
						(font
							(size 1.27 1.27)
						)
					)
				)
			)
			(pin output line
				(at 10.16 -5.08 180)
				(length 2.54)
				(name "OUT4"
					(effects
						(font
							(size 1.27 1.27)
						)
					)
				)
				(number "13"
					(effects
						(font
							(size 1.27 1.27)
						)
					)
				)
			)
			(pin power_in line
				(at 10.16 -36.83 180)
				(length 2.54)
				(name "GND"
					(effects
						(font
							(size 1.27 1.27)
						)
					)
				)
				(number "14"
					(effects
						(font
							(size 1.27 1.27)
						)
					)
				)
			)
			(pin input line
				(at 10.16 -27.94 180)
				(length 2.54)
				(name "REF"
					(effects
						(font
							(size 1.27 1.27)
						)
					)
				)
				(number "15"
					(effects
						(font
							(size 1.27 1.27)
						)
					)
				)
			)
			(pin power_in line
				(at 10.16 -25.4 180)
				(length 2.54)
				(name "VCC"
					(effects
						(font
							(size 1.27 1.27)
						)
					)
				)
				(number "16"
					(effects
						(font
							(size 1.27 1.27)
						)
					)
				)
			)
			(pin input line
				(at -10.16 -34.29 0)
				(length 2.54)
				(name "CODE1"
					(effects
						(font
							(size 1.27 1.27)
						)
					)
				)
				(number "17"
					(effects
						(font
							(size 1.27 1.27)
						)
					)
				)
			)
			(pin output line
				(at 10.16 1.27 180)
				(length 2.54)
				(name "OUT3"
					(effects
						(font
							(size 1.27 1.27)
						)
					)
				)
				(number "18"
					(effects
						(font
							(size 1.27 1.27)
						)
					)
				)
			)
			(pin output line
				(at 10.16 7.62 180)
				(length 2.54)
				(name "OUT2"
					(effects
						(font
							(size 1.27 1.27)
						)
					)
				)
				(number "19"
					(effects
						(font
							(size 1.27 1.27)
						)
					)
				)
			)
			(pin input line
				(at -10.16 7.62 0)
				(length 2.54)
				(name "IN2"
					(effects
						(font
							(size 1.27 1.27)
						)
					)
				)
				(number "2"
					(effects
						(font
							(size 1.27 1.27)
						)
					)
				)
			)
			(pin output line
				(at 10.16 13.97 180)
				(length 2.54)
				(name "OUT1"
					(effects
						(font
							(size 1.27 1.27)
						)
					)
				)
				(number "20"
					(effects
						(font
							(size 1.27 1.27)
						)
					)
				)
			)
			(pin input line
				(at -10.16 1.27 0)
				(length 2.54)
				(name "IN3"
					(effects
						(font
							(size 1.27 1.27)
						)
					)
				)
				(number "3"
					(effects
						(font
							(size 1.27 1.27)
						)
					)
				)
			)
			(pin input line
				(at -10.16 -36.83 0)
				(length 2.54)
				(name "CODE2"
					(effects
						(font
							(size 1.27 1.27)
						)
					)
				)
				(number "4"
					(effects
						(font
							(size 1.27 1.27)
						)
					)
				)
			)
			(pin power_in line
				(at 10.16 -34.29 180)
				(length 2.54)
				(name "DGND"
					(effects
						(font
							(size 1.27 1.27)
						)
					)
				)
				(number "5"
					(effects
						(font
							(size 1.27 1.27)
						)
					)
				)
			)
			(pin input line
				(at -10.16 -25.4 0)
				(length 2.54)
				(name "SCL"
					(effects
						(font
							(size 1.27 1.27)
						)
					)
				)
				(number "6"
					(effects
						(font
							(size 1.27 1.27)
						)
					)
				)
			)
			(pin open_collector line
				(at -10.16 -27.94 0)
				(length 2.54)
				(name "SDA"
					(effects
						(font
							(size 1.27 1.27)
						)
					)
				)
				(number "7"
					(effects
						(font
							(size 1.27 1.27)
						)
					)
				)
			)
			(pin input line
				(at -10.16 -5.08 0)
				(length 2.54)
				(name "IN4"
					(effects
						(font
							(size 1.27 1.27)
						)
					)
				)
				(number "8"
					(effects
						(font
							(size 1.27 1.27)
						)
					)
				)
			)
			(pin input line
				(at -10.16 -11.43 0)
				(length 2.54)
				(name "IN5"
					(effects
						(font
							(size 1.27 1.27)
						)
					)
				)
				(number "9"
					(effects
						(font
							(size 1.27 1.27)
						)
					)
				)
			)
		)
	)
	(symbol "RX8900CE"
		(exclude_from_sim no)
		(in_bom yes)
		(on_board yes)
		(property "Reference" "U"
			(at -9.144 11.176 0)
			(effects
				(font
					(size 1.27 1.27)
				)
			)
		)
		(property "Value" "RX8900CE"
			(at 5.588 -11.43 0)
			(effects
				(font
					(size 1.27 1.27)
				)
			)
		)
		(property "Footprint" "Package_SON:EPSON_CE-USON-10_USON-10_3.2x2.5mm_P0.7mm"
			(at 1.27 0 0)
			(effects
				(font
					(size 1.27 1.27)
				)
				(hide yes)
			)
		)
		(property "Datasheet" ""
			(at 1.27 0 0)
			(effects
				(font
					(size 1.27 1.27)
				)
				(hide yes)
			)
		)
		(property "Description" ""
			(at 1.27 0 0)
			(effects
				(font
					(size 1.27 1.27)
				)
				(hide yes)
			)
		)
		(symbol "RX8900CE_0_1"
			(rectangle
				(start -10.16 10.16)
				(end 10.16 -10.16)
				(stroke
					(width 0.254)
					(type default)
				)
				(fill
					(type background)
				)
			)
		)
		(symbol "RX8900CE_1_1"
			(pin bidirectional line
				(at 12.7 2.54 180)
				(length 2.54)
				(name "FOE"
					(effects
						(font
							(size 1.27 1.27)
						)
					)
				)
				(number "1"
					(effects
						(font
							(size 1.27 1.27)
						)
					)
				)
			)
			(pin open_collector line
				(at -12.7 5.08 0)
				(length 2.54)
				(name "~{INT}"
					(effects
						(font
							(size 1.27 1.27)
						)
					)
				)
				(number "10"
					(effects
						(font
							(size 1.27 1.27)
						)
					)
				)
			)
			(pin power_in line
				(at -2.54 12.7 270)
				(length 2.54)
				(name "V_{DD}"
					(effects
						(font
							(size 1.27 1.27)
						)
					)
				)
				(number "2"
					(effects
						(font
							(size 1.27 1.27)
						)
					)
				)
			)
			(pin power_in line
				(at 2.54 12.7 270)
				(length 2.54)
				(name "V_{BAT}"
					(effects
						(font
							(size 1.27 1.27)
						)
					)
				)
				(number "3"
					(effects
						(font
							(size 1.27 1.27)
						)
					)
				)
			)
			(pin bidirectional line
				(at 12.7 -2.54 180)
				(length 2.54)
				(name "FOUT"
					(effects
						(font
							(size 1.27 1.27)
						)
					)
				)
				(number "4"
					(effects
						(font
							(size 1.27 1.27)
						)
					)
				)
			)
			(pin input line
				(at -12.7 -3.81 0)
				(length 2.54)
				(name "SCL"
					(effects
						(font
							(size 1.27 1.27)
						)
					)
				)
				(number "5"
					(effects
						(font
							(size 1.27 1.27)
						)
					)
				)
			)
			(pin no_connect line
				(at 12.7 -7.62 180)
				(length 2.54) hide
				(name "T1"
					(effects
						(font
							(size 1.27 1.27)
						)
					)
				)
				(number "6"
					(effects
						(font
							(size 1.27 1.27)
						)
					)
				)
			)
			(pin bidirectional line
				(at -12.7 -7.62 0)
				(length 2.54)
				(name "SDA"
					(effects
						(font
							(size 1.27 1.27)
						)
					)
				)
				(number "7"
					(effects
						(font
							(size 1.27 1.27)
						)
					)
				)
			)
			(pin no_connect line
				(at 12.7 -7.62 180)
				(length 2.54) hide
				(name "T2"
					(effects
						(font
							(size 1.27 1.27)
						)
					)
				)
				(number "8"
					(effects
						(font
							(size 1.27 1.27)
						)
					)
				)
			)
			(pin power_in line
				(at 0 -12.7 90)
				(length 2.54)
				(name "GND"
					(effects
						(font
							(size 1.27 1.27)
						)
					)
				)
				(number "9"
					(effects
						(font
							(size 1.27 1.27)
						)
					)
				)
			)
		)
	)
	(symbol "SCD40-D-R2"
		(exclude_from_sim no)
		(in_bom yes)
		(on_board yes)
		(property "Reference" "S"
			(at -1.27 11.43 0)
			(effects
				(font
					(size 1.27 1.27)
				)
				(justify left top)
			)
		)
		(property "Value" "SCD40-D-R2"
			(at -6.35 -10.16 0)
			(effects
				(font
					(size 1.27 1.27)
				)
				(justify left top)
			)
		)
		(property "Footprint" "PCM_SilentWorks:SCD40DR2"
			(at 29.21 -84.76 0)
			(effects
				(font
					(size 1.27 1.27)
				)
				(justify left top)
				(hide yes)
			)
		)
		(property "Datasheet" "https://www.arrow.com/en/products/scd40-d-r2/sensirion-ag"
			(at 29.21 -184.76 0)
			(effects
				(font
					(size 1.27 1.27)
				)
				(justify left top)
				(hide yes)
			)
		)
		(property "Description" "Air Quality Sensor CO2 Sensor 2.5V/3.3V/5V 20-Pin SMD EP"
			(at 0 0 0)
			(effects
				(font
					(size 1.27 1.27)
				)
				(hide yes)
			)
		)
		(property "Height" "6.8"
			(at 29.21 -384.76 0)
			(effects
				(font
					(size 1.27 1.27)
				)
				(justify left top)
				(hide yes)
			)
		)
		(property "Mouser Part Number" "403-SCD40-D-R2"
			(at 29.21 -484.76 0)
			(effects
				(font
					(size 1.27 1.27)
				)
				(justify left top)
				(hide yes)
			)
		)
		(property "Mouser Price/Stock" "https://www.mouser.co.uk/ProductDetail/Sensirion/SCD40-D-R2?qs=HBWAp0VN4RjIKW%252BlMeZn1w%3D%3D"
			(at 29.21 -584.76 0)
			(effects
				(font
					(size 1.27 1.27)
				)
				(justify left top)
				(hide yes)
			)
		)
		(property "Manufacturer_Name" "Sensirion"
			(at 29.21 -684.76 0)
			(effects
				(font
					(size 1.27 1.27)
				)
				(justify left top)
				(hide yes)
			)
		)
		(property "Manufacturer_Part_Number" "SCD40-D-R2"
			(at 29.21 -784.76 0)
			(effects
				(font
					(size 1.27 1.27)
				)
				(justify left top)
				(hide yes)
			)
		)
		(symbol "SCD40-D-R2_1_1"
			(rectangle
				(start -8.89 8.89)
				(end 8.89 -8.89)
				(stroke
					(width 0.254)
					(type default)
				)
				(fill
					(type background)
				)
			)
			(pin bidirectional line
				(at -13.97 3.81 0)
				(length 5.08)
				(name "SDA"
					(effects
						(font
							(size 1.27 1.27)
						)
					)
				)
				(number "10"
					(effects
						(font
							(size 1.27 1.27)
						)
					)
				)
			)
			(pin power_in line
				(at -13.97 -3.81 0)
				(length 5.08) hide
				(name "VDDH"
					(effects
						(font
							(size 1.27 1.27)
						)
					)
				)
				(number "19"
					(effects
						(font
							(size 1.27 1.27)
						)
					)
				)
			)
			(pin power_in line
				(at -13.97 -6.35 0)
				(length 5.08) hide
				(name "GND"
					(effects
						(font
							(size 1.27 1.27)
						)
					)
				)
				(number "20"
					(effects
						(font
							(size 1.27 1.27)
						)
					)
				)
			)
			(pin power_in line
				(at -13.97 -6.35 0)
				(length 5.08) hide
				(name "GND"
					(effects
						(font
							(size 1.27 1.27)
						)
					)
				)
				(number "21"
					(effects
						(font
							(size 1.27 1.27)
						)
					)
				)
			)
			(pin power_in line
				(at -13.97 -6.35 0)
				(length 5.08)
				(name "GND"
					(effects
						(font
							(size 1.27 1.27)
						)
					)
				)
				(number "6"
					(effects
						(font
							(size 1.27 1.27)
						)
					)
				)
			)
			(pin power_in line
				(at -13.97 -3.81 0)
				(length 5.08)
				(name "VDD"
					(effects
						(font
							(size 1.27 1.27)
						)
					)
				)
				(number "7"
					(effects
						(font
							(size 1.27 1.27)
						)
					)
				)
			)
			(pin input line
				(at -13.97 6.35 0)
				(length 5.08)
				(name "SCL"
					(effects
						(font
							(size 1.27 1.27)
						)
					)
				)
				(number "9"
					(effects
						(font
							(size 1.27 1.27)
						)
					)
				)
			)
		)
	)
	(symbol "TSOP36238TT"
		(exclude_from_sim no)
		(in_bom yes)
		(on_board yes)
		(property "Reference" "U"
			(at -10.16 7.62 0)
			(effects
				(font
					(size 1.27 1.27)
				)
				(justify left)
			)
		)
		(property "Value" "TSOP36238TT"
			(at -10.16 -7.62 0)
			(effects
				(font
					(size 1.27 1.27)
				)
				(justify left)
			)
		)
		(property "Footprint" "PCM_SilentWorks:TSOP36238TT"
			(at -1.27 -9.525 0)
			(effects
				(font
					(size 1.27 1.27)
				)
				(hide yes)
			)
		)
		(property "Datasheet" "https://www.vishay.com/docs/82568/tsop362.pdf"
			(at 16.51 7.62 0)
			(effects
				(font
					(size 1.27 1.27)
				)
				(hide yes)
			)
		)
		(property "Description" "Photo Modules for PCM Remote Control Systems"
			(at 0 0 0)
			(effects
				(font
					(size 1.27 1.27)
				)
				(hide yes)
			)
		)
		(property "ki_keywords" "opto IR receiver"
			(at 0 0 0)
			(effects
				(font
					(size 1.27 1.27)
				)
				(hide yes)
			)
		)
		(property "ki_fp_filters" "Vishay*MINICAST*"
			(at 0 0 0)
			(effects
				(font
					(size 1.27 1.27)
				)
				(hide yes)
			)
		)
		(symbol "TSOP36238TT_0_0"
			(arc
				(start -10.287 1.397)
				(mid -11.0899 -0.1852)
				(end -10.287 -1.778)
				(stroke
					(width 0.254)
					(type default)
				)
				(fill
					(type background)
				)
			)
			(polyline
				(pts
					(xy 1.905 -5.08) (xy 0.127 -5.08)
				)
				(stroke
					(width 0)
					(type default)
				)
				(fill
					(type none)
				)
			)
			(polyline
				(pts
					(xy 1.905 5.08) (xy 0.127 5.08)
				)
				(stroke
					(width 0)
					(type default)
				)
				(fill
					(type none)
				)
			)
			(text "DEMOD"
				(at -3.175 0.254 900)
				(effects
					(font
						(size 1.524 1.524)
					)
				)
			)
		)
		(symbol "TSOP36238TT_0_1"
			(rectangle
				(start -6.096 5.588)
				(end 0.127 -5.588)
				(stroke
					(width 0)
					(type default)
				)
				(fill
					(type none)
				)
			)
			(polyline
				(pts
					(xy -8.763 0.381) (xy -9.652 1.27)
				)
				(stroke
					(width 0)
					(type default)
				)
				(fill
					(type none)
				)
			)
			(polyline
				(pts
					(xy -8.763 0.381) (xy -9.271 0.381)
				)
				(stroke
					(width 0)
					(type default)
				)
				(fill
					(type none)
				)
			)
			(polyline
				(pts
					(xy -8.763 0.381) (xy -8.763 0.889)
				)
				(stroke
					(width 0)
					(type default)
				)
				(fill
					(type none)
				)
			)
			(polyline
				(pts
					(xy -8.636 -0.635) (xy -9.525 0.254)
				)
				(stroke
					(width 0)
					(type default)
				)
				(fill
					(type none)
				)
			)
			(polyline
				(pts
					(xy -8.636 -0.635) (xy -9.144 -0.635)
				)
				(stroke
					(width 0)
					(type default)
				)
				(fill
					(type none)
				)
			)
			(polyline
				(pts
					(xy -8.636 -0.635) (xy -8.636 -0.127)
				)
				(stroke
					(width 0)
					(type default)
				)
				(fill
					(type none)
				)
			)
			(polyline
				(pts
					(xy -8.382 -1.016) (xy -6.731 -1.016)
				)
				(stroke
					(width 0)
					(type default)
				)
				(fill
					(type none)
				)
			)
			(polyline
				(pts
					(xy 1.27 -2.921) (xy 0.127 -2.921)
				)
				(stroke
					(width 0)
					(type default)
				)
				(fill
					(type none)
				)
			)
			(polyline
				(pts
					(xy 1.27 -1.905) (xy 1.27 -3.81)
				)
				(stroke
					(width 0)
					(type default)
				)
				(fill
					(type none)
				)
			)
			(polyline
				(pts
					(xy 1.397 -3.556) (xy 1.524 -3.556)
				)
				(stroke
					(width 0)
					(type default)
				)
				(fill
					(type none)
				)
			)
			(polyline
				(pts
					(xy 1.651 -3.556) (xy 1.524 -3.556)
				)
				(stroke
					(width 0)
					(type default)
				)
				(fill
					(type none)
				)
			)
			(polyline
				(pts
					(xy 1.651 -3.556) (xy 1.651 -3.302)
				)
				(stroke
					(width 0)
					(type default)
				)
				(fill
					(type none)
				)
			)
			(polyline
				(pts
					(xy 1.905 0) (xy 1.905 1.27)
				)
				(stroke
					(width 0)
					(type default)
				)
				(fill
					(type none)
				)
			)
			(polyline
				(pts
					(xy 1.905 4.445) (xy 1.905 5.08) (xy 2.54 5.08)
				)
				(stroke
					(width 0)
					(type default)
				)
				(fill
					(type none)
				)
			)
			(polyline
				(pts
					(xy -8.382 0.635) (xy -6.731 0.635) (xy -7.62 -1.016) (xy -8.382 0.635)
				)
				(stroke
					(width 0)
					(type default)
				)
				(fill
					(type outline)
				)
			)
			(polyline
				(pts
					(xy -6.096 1.397) (xy -7.62 1.397) (xy -7.62 -1.778) (xy -6.096 -1.778)
				)
				(stroke
					(width 0)
					(type default)
				)
				(fill
					(type none)
				)
			)
			(polyline
				(pts
					(xy 1.27 -3.175) (xy 1.905 -3.81) (xy 1.905 -5.08) (xy 2.54 -5.08)
				)
				(stroke
					(width 0)
					(type default)
				)
				(fill
					(type none)
				)
			)
			(polyline
				(pts
					(xy 1.27 -2.54) (xy 1.905 -1.905) (xy 1.905 0) (xy 2.54 0)
				)
				(stroke
					(width 0)
					(type default)
				)
				(fill
					(type none)
				)
			)
			(rectangle
				(start 2.54 1.27)
				(end 1.27 4.445)
				(stroke
					(width 0)
					(type default)
				)
				(fill
					(type none)
				)
			)
			(rectangle
				(start 7.62 6.35)
				(end -10.16 -6.35)
				(stroke
					(width 0.254)
					(type default)
				)
				(fill
					(type background)
				)
			)
		)
		(symbol "TSOP36238TT_1_1"
			(pin power_in line
				(at 10.16 -5.08 180)
				(length 2.54) hide
				(name "GND"
					(effects
						(font
							(size 1.27 1.27)
						)
					)
				)
				(number "1"
					(effects
						(font
							(size 1.27 1.27)
						)
					)
				)
			)
			(pin power_in line
				(at 10.16 -5.08 180)
				(length 2.54)
				(name "GND"
					(effects
						(font
							(size 1.27 1.27)
						)
					)
				)
				(number "2"
					(effects
						(font
							(size 1.27 1.27)
						)
					)
				)
			)
			(pin power_in line
				(at 10.16 5.08 180)
				(length 2.54)
				(name "Vs"
					(effects
						(font
							(size 1.27 1.27)
						)
					)
				)
				(number "3"
					(effects
						(font
							(size 1.27 1.27)
						)
					)
				)
			)
			(pin output line
				(at 10.16 0 180)
				(length 2.54)
				(name "OUT"
					(effects
						(font
							(size 1.27 1.27)
						)
					)
				)
				(number "4"
					(effects
						(font
							(size 1.27 1.27)
						)
					)
				)
			)
		)
	)
	(symbol "module_bme280"
		(pin_names
			(offset 1.016)
		)
		(exclude_from_sim no)
		(in_bom yes)
		(on_board yes)
		(property "Reference" "U"
			(at 3.81 11.43 0)
			(effects
				(font
					(size 1.27 1.27)
				)
			)
		)
		(property "Value" "module_bme280"
			(at 11.43 -8.89 0)
			(effects
				(font
					(size 1.27 1.27)
				)
			)
		)
		(property "Footprint" "PCM_SilentWorks:module_bme280"
			(at 12.7 -11.43 0)
			(effects
				(font
					(size 1.27 1.27)
				)
				(hide yes)
			)
		)
		(property "Datasheet" ""
			(at 0 0 0)
			(effects
				(font
					(size 1.27 1.27)
				)
				(hide yes)
			)
		)
		(property "Description" ""
			(at 0 0 0)
			(effects
				(font
					(size 1.27 1.27)
				)
				(hide yes)
			)
		)
		(symbol "module_bme280_0_1"
			(rectangle
				(start 3.81 -7.62)
				(end 19.05 10.16)
				(stroke
					(width 0)
					(type default)
				)
				(fill
					(type background)
				)
			)
			(circle
				(center 16.51 -5.08)
				(radius 1.8034)
				(stroke
					(width 0)
					(type default)
				)
				(fill
					(type none)
				)
			)
			(circle
				(center 16.51 7.62)
				(radius 1.8034)
				(stroke
					(width 0)
					(type default)
				)
				(fill
					(type none)
				)
			)
		)
		(symbol "module_bme280_1_1"
			(pin passive line
				(at 0 7.62 0)
				(length 3.81)
				(name "VCC"
					(effects
						(font
							(size 1.27 1.27)
						)
					)
				)
				(number "1"
					(effects
						(font
							(size 1.27 1.27)
						)
					)
				)
			)
			(pin passive line
				(at 0 5.08 0)
				(length 3.81)
				(name "GND"
					(effects
						(font
							(size 1.27 1.27)
						)
					)
				)
				(number "2"
					(effects
						(font
							(size 1.27 1.27)
						)
					)
				)
			)
			(pin passive line
				(at 0 2.54 0)
				(length 3.81)
				(name "SCL"
					(effects
						(font
							(size 1.27 1.27)
						)
					)
				)
				(number "3"
					(effects
						(font
							(size 1.27 1.27)
						)
					)
				)
			)
			(pin passive line
				(at 0 0 0)
				(length 3.81)
				(name "SDA"
					(effects
						(font
							(size 1.27 1.27)
						)
					)
				)
				(number "4"
					(effects
						(font
							(size 1.27 1.27)
						)
					)
				)
			)
			(pin passive line
				(at 0 -2.54 0)
				(length 3.81)
				(name "CSB"
					(effects
						(font
							(size 1.27 1.27)
						)
					)
				)
				(number "5"
					(effects
						(font
							(size 1.27 1.27)
						)
					)
				)
			)
			(pin passive line
				(at 0 -5.08 0)
				(length 3.81)
				(name "SDO"
					(effects
						(font
							(size 1.27 1.27)
						)
					)
				)
				(number "6"
					(effects
						(font
							(size 1.27 1.27)
						)
					)
				)
			)
		)
	)
)