(footprint "CMT752580SMTTR"
	(version 20240108)
	(generator "pcbnew")
	(generator_version "8.0")
	(layer "F.Cu")
	(descr "CMT-7525-80-SMT-TR-3")
	(tags "Loudspeaker or Buzzer")
	(property "Reference" "LS**"
		(at 0 0.025 0)
		(layer "F.SilkS")
		(uuid "1a8359ba-e669-4b14-9fca-4795bcd2bbb7")
		(effects
			(font
				(size 1.27 1.27)
				(thickness 0.254)
			)
		)
	)
	(property "Value" "CMT752580SMTTR"
		(at 0 -5.08 0)
		(layer "F.SilkS")
		(hide yes)
		(uuid "9052e563-1412-4c20-9c8b-c87f0126be3f")
		(effects
			(font
				(size 1.27 1.27)
				(thickness 0.254)
			)
		)
	)
	(property "Footprint" ""
		(at 0 0 0)
		(unlocked yes)
		(layer "F.Fab")
		(hide yes)
		(uuid "7e790f3c-dd71-4ec6-a2b4-034273d8d8a6")
		(effects
			(font
				(size 1.27 1.27)
			)
		)
	)
	(property "Datasheet" ""
		(at 0 0 0)
		(unlocked yes)
		(layer "F.Fab")
		(hide yes)
		(uuid "ef4600f5-4c55-49f8-a62e-89d3171532cf")
		(effects
			(font
				(size 1.27 1.27)
			)
		)
	)
	(property "Description" ""
		(at 0 0 0)
		(unlocked yes)
		(layer "F.Fab")
		(hide yes)
		(uuid "fc35f04d-8f0c-4b59-b16a-f2d68e5b7473")
		(effects
			(font
				(size 1.27 1.27)
			)
		)
	)
	(attr smd)
	(fp_line
		(start -3.75 -1.785)
		(end -3.75 1.825)
		(stroke
			(width 0.2)
			(type solid)
		)
		(layer "F.SilkS")
		(uuid "94b2b991-b8e4-407e-8969-25550a7cb868")
	)
	(fp_line
		(start -1.793 -3.725)
		(end 1.8 -3.775)
		(stroke
			(width 0.2)
			(type solid)
		)
		(layer "F.SilkS")
		(uuid "8da8e467-7881-4cf7-a43f-6edb50ff197d")
	)
	(fp_line
		(start -1.793 3.775)
		(end 1.8 3.775)
		(stroke
			(width 0.2)
			(type solid)
		)
		(layer "F.SilkS")
		(uuid "3b4016f1-e686-4f3f-8c39-d5d5a68eb242")
	)
	(fp_line
		(start 3.75 -1.785)
		(end 3.75 1.825)
		(stroke
			(width 0.2)
			(type solid)
		)
		(layer "F.SilkS")
		(uuid "f9d75d99-65a1-4117-b931-ce64d9217d57")
	)
	(fp_circle
		(center -2.95 -1.365381)
		(end -2.490381 -1.365381)
		(stroke
			(width 0.2)
			(type default)
		)
		(fill none)
		(layer "F.SilkS")
		(uuid "49b474a5-fcf6-42cb-b90e-d71df89c33ae")
	)
	(fp_line
		(start -4.975 -4.95)
		(end 4.975 -4.95)
		(stroke
			(width 0.1)
			(type solid)
		)
		(layer "F.CrtYd")
		(uuid "eb223c9d-238f-4dd8-9841-ea1dc2e1ff2e")
	)
	(fp_line
		(start -4.975 5)
		(end -4.975 -4.95)
		(stroke
			(width 0.1)
			(type solid)
		)
		(layer "F.CrtYd")
		(uuid "5aabe860-1182-458f-a499-81c425dc5422")
	)
	(fp_line
		(start 4.975 -4.95)
		(end 4.975 5)
		(stroke
			(width 0.1)
			(type solid)
		)
		(layer "F.CrtYd")
		(uuid "2fda14fe-0029-4e19-a943-692cc85c79aa")
	)
	(fp_line
		(start 4.975 5)
		(end -4.975 5)
		(stroke
			(width 0.1)
			(type solid)
		)
		(layer "F.CrtYd")
		(uuid "d0fb47ec-8c41-41d6-8416-72d0496063ce")
	)
	(fp_line
		(start -3.75 -3.725)
		(end 3.75 -3.725)
		(stroke
			(width 0.1)
			(type solid)
		)
		(layer "F.Fab")
		(uuid "dfb6ae5c-415e-4fbf-87b2-37207bec47cc")
	)
	(fp_line
		(start -3.75 3.775)
		(end -3.75 -3.725)
		(stroke
			(width 0.1)
			(type solid)
		)
		(layer "F.Fab")
		(uuid "ba474596-d9c5-446f-85c0-4a8457b05bce")
	)
	(fp_line
		(start 3.75 -3.725)
		(end 3.75 3.775)
		(stroke
			(width 0.1)
			(type solid)
		)
		(layer "F.Fab")
		(uuid "64e18bc5-2ad4-4c9f-a45f-e5a0d255236e")
	)
	(fp_line
		(start 3.75 3.775)
		(end -3.75 3.775)
		(stroke
			(width 0.1)
			(type solid)
		)
		(layer "F.Fab")
		(uuid "366bce29-b4b2-4dfe-b33f-cc83b1d23f37")
	)
	(fp_text user "${REFERENCE}"
		(at 0 5.08 0)
		(layer "F.Fab")
		(uuid "b24d4712-dbef-4fa9-aec9-fb4ec3c72e81")
		(effects
			(font
				(size 1.27 1.27)
				(thickness 0.254)
			)
		)
	)
	(pad "1" smd rect
		(at -3.075 -3.05)
		(size 1.8 1.8)
		(layers "F.Cu" "F.Paste" "F.Mask")
		(uuid "8c207a85-7e10-4c3d-b09d-edfb9a9250d6")
	)
	(pad "2" smd rect
		(at -3.075 3.1)
		(size 1.8 1.8)
		(layers "F.Cu" "F.Paste" "F.Mask")
		(uuid "a12c234d-176b-4263-866c-e4112a681476")
	)
	(pad "3" smd rect
		(at 3.075 3.1)
		(size 1.8 1.8)
		(layers "F.Cu" "F.Paste" "F.Mask")
		(uuid "c930b0f0-f26d-4151-8e02-79cfc1502a94")
	)
	(pad "4" smd rect
		(at 3.075 -3.05)
		(size 1.8 1.8)
		(layers "F.Cu" "F.Paste" "F.Mask")
		(uuid "3cdab895-019b-43a5-bc41-2ab4646164a1")
	)
	(model "${KICAD8_3RD_PARTY}/3dmodels/com_gitlab_laszloh_kicad-libraries/silentworks.3dshapes/CMT752580SMTTR.step"
		(offset
			(xyz 0 -0.02999999888 0)
		)
		(scale
			(xyz 1 1 1)
		)
		(rotate
			(xyz -90 0 -90)
		)
	)
)