(footprint "module_bme280"
	(version 20240108)
	(generator "pcbnew")
	(generator_version "8.0")
	(layer "F.Cu")
	(property "Reference" "REF**"
		(at 0 -2.032 0)
		(layer "F.SilkS")
		(uuid "46170a0e-1b75-46e4-a902-2572d188d2c7")
		(effects
			(font
				(size 1 1)
				(thickness 0.15)
			)
		)
	)
	(property "Value" "module_bme280"
		(at 5.334 15.494 0)
		(layer "F.Fab")
		(uuid "b9619980-9b51-4b28-8e88-c864a5c3ab1e")
		(effects
			(font
				(size 1 1)
				(thickness 0.15)
			)
		)
	)
	(property "Footprint" ""
		(at 5.08 12.446 0)
		(unlocked yes)
		(layer "F.Fab")
		(hide yes)
		(uuid "badba940-0ef5-4dc8-845f-6a07780f6be2")
		(effects
			(font
				(size 1.27 1.27)
			)
		)
	)
	(property "Datasheet" ""
		(at 5.08 12.446 0)
		(unlocked yes)
		(layer "F.Fab")
		(hide yes)
		(uuid "2d62eb29-ef8f-43ba-b746-4037882f4253")
		(effects
			(font
				(size 1.27 1.27)
			)
		)
	)
	(property "Description" ""
		(at 5.08 12.446 0)
		(unlocked yes)
		(layer "F.Fab")
		(hide yes)
		(uuid "7c9fcf42-d66e-4282-88df-584975e355cc")
		(effects
			(font
				(size 1.27 1.27)
			)
		)
	)
	(attr through_hole)
	(fp_line
		(start -1.016 -1.27)
		(end -1.016 14.224)
		(stroke
			(width 0.12)
			(type solid)
		)
		(layer "F.SilkS")
		(uuid "f40abf6a-c554-46f3-804b-da9ead236259")
	)
	(fp_line
		(start -1.016 14.224)
		(end 10.922 14.224)
		(stroke
			(width 0.12)
			(type solid)
		)
		(layer "F.SilkS")
		(uuid "af6bbab8-2b28-4458-8d7e-74eb3f998479")
	)
	(fp_line
		(start 10.922 -1.27)
		(end -1.016 -1.27)
		(stroke
			(width 0.12)
			(type solid)
		)
		(layer "F.SilkS")
		(uuid "35cd8f15-1190-4dc1-aed9-9945813fd3d3")
	)
	(fp_line
		(start 10.922 14.224)
		(end 10.922 -1.27)
		(stroke
			(width 0.12)
			(type solid)
		)
		(layer "F.SilkS")
		(uuid "3a9545d9-cec5-4b46-af4b-11a21da23b2e")
	)
	(fp_circle
		(center 7.874 1.27)
		(end 8.89 2.286)
		(stroke
			(width 0.12)
			(type solid)
		)
		(fill none)
		(layer "F.SilkS")
		(uuid "d100ef2b-558e-4586-aad0-030407b5897b")
	)
	(fp_circle
		(center 7.874 11.684)
		(end 8.382 12.954)
		(stroke
			(width 0.12)
			(type solid)
		)
		(fill none)
		(layer "F.SilkS")
		(uuid "e9f829d1-3db1-4560-bee4-0028e7093cea")
	)
	(fp_text user "SCL"
		(at 3.556 5.08 0)
		(layer "F.SilkS")
		(uuid "0dcb2a2c-23b2-4e9d-8cbb-8b8e205b64aa")
		(effects
			(font
				(size 1 1)
				(thickness 0.15)
			)
		)
	)
	(fp_text user "SDA"
		(at 3.556 7.62 0)
		(layer "F.SilkS")
		(uuid "6ab41fc2-e5d3-4d95-9559-d491c7bb5799")
		(effects
			(font
				(size 1 1)
				(thickness 0.15)
			)
		)
	)
	(fp_text user "BME/P280"
		(at 6.858 -2.032 0)
		(layer "F.SilkS")
		(uuid "8a8470b1-2506-4ccb-b5a1-b6d5c24dbf78")
		(effects
			(font
				(size 1 1)
				(thickness 0.15)
			)
		)
	)
	(fp_text user "CSB"
		(at 3.556 10.16 0)
		(layer "F.SilkS")
		(uuid "a726de3e-bba4-4d82-8e3b-c255ef369d44")
		(effects
			(font
				(size 1 1)
				(thickness 0.15)
			)
		)
	)
	(fp_text user "VCC"
		(at 3.556 0 0)
		(layer "F.SilkS")
		(uuid "d0390b86-7d9e-478e-8759-67eaca0576ed")
		(effects
			(font
				(size 1 1)
				(thickness 0.15)
			)
		)
	)
	(fp_text user "SD0"
		(at 3.556 12.7 0)
		(layer "F.SilkS")
		(uuid "d0862c3b-c24a-4cb7-b4f3-d32971eab3fe")
		(effects
			(font
				(size 1 1)
				(thickness 0.15)
			)
		)
	)
	(fp_text user "GND"
		(at 3.556 2.54 0)
		(layer "F.SilkS")
		(uuid "f60bbfc7-c16d-4adf-bb3d-a8be9a3d01c7")
		(effects
			(font
				(size 1 1)
				(thickness 0.15)
			)
		)
	)
	(pad "1" thru_hole rect
		(at 0 0)
		(size 1.7 1.7)
		(drill 1)
		(layers "*.Cu" "*.Mask")
		(remove_unused_layers no)
		(uuid "a077f59c-ab72-4467-97bf-40b651dc413f")
	)
	(pad "2" thru_hole circle
		(at 0 2.54)
		(size 1.7 1.7)
		(drill 1)
		(layers "*.Cu" "*.Mask")
		(remove_unused_layers no)
		(uuid "3477f665-0a6c-41d1-9e20-d7aed08adaad")
	)
	(pad "3" thru_hole circle
		(at 0 5.08)
		(size 1.7 1.7)
		(drill 1)
		(layers "*.Cu" "*.Mask")
		(remove_unused_layers no)
		(uuid "c95e540f-1ef5-451a-9f1a-849b4e7505bf")
	)
	(pad "4" thru_hole circle
		(at 0 7.62)
		(size 1.7 1.7)
		(drill 1)
		(layers "*.Cu" "*.Mask")
		(remove_unused_layers no)
		(uuid "625b8d61-aa14-437a-9631-abd5a9246ecf")
	)
	(pad "5" thru_hole circle
		(at 0 10.16)
		(size 1.7 1.7)
		(drill 1)
		(layers "*.Cu" "*.Mask")
		(remove_unused_layers no)
		(uuid "e54a04af-6f7a-4882-8d12-54f04e015bc5")
	)
	(pad "6" thru_hole circle
		(at 0 12.7)
		(size 1.7 1.7)
		(drill 1)
		(layers "*.Cu" "*.Mask")
		(remove_unused_layers no)
		(uuid "9672caa0-a48b-4664-b642-0db4f4d59485")
	)
	(model "${KICAD8_3RD_PARTY}/3dmodels/com_gitlab_laszloh_kicad-libraries/silentworks.3dshapes/module_bme280.step"
		(offset
			(xyz 4.58 -6.446 2.5)
		)
		(scale
			(xyz 1 1 1)
		)
		(rotate
			(xyz 0 0 90)
		)
	)
	(model "${KISYS3DMOD}/Connector_PinHeader_2.54mm.3dshapes/PinHeader_1x06_P2.54mm_Vertical.wrl"
		(offset
			(xyz 0.08 0.054 2.5)
		)
		(scale
			(xyz 1 1 1)
		)
		(rotate
			(xyz 0 180 0)
		)
	)
)